[
  {
    "children": [
      {
        "children": [
          {
            "children": [
              {
                "children": [
                  {
                    "children": [
                      {
                        "name": "setEmailId",
                        "type": "function",
                        "static": false,
                        "location": "com/bharathkalyans/relearn/model/Employee.java:43"
                      },
                      {
                        "name": "setFirstName",
                        "type": "function",
                        "static": false,
                        "location": "com/bharathkalyans/relearn/model/Employee.java:35"
                      },
                      {
                        "name": "setLastName",
                        "type": "function",
                        "static": false,
                        "location": "com/bharathkalyans/relearn/model/Employee.java:39"
                      }
                    ],
                    "name": "Employee",
                    "type": "class"
                  }
                ],
                "name": "model",
                "type": "package"
              }
            ],
            "name": "relearn",
            "type": "package"
          }
        ],
        "name": "bharathkalyans",
        "type": "package"
      }
    ],
    "name": "com",
    "type": "package"
  },
  {
    "type": "http",
    "name": "HTTP server requests",
    "children": [
      {
        "type": "route",
        "name": "POST /api/v1/employees"
      },
      {
        "type": "route",
        "name": "POST /error"
      }
    ]
  }
]