{
  "events": [
    {
      "event": "call",
      "http_server_request": {
        "headers": {
          "content-length": "92",
          "postman-token": "f763c8c4-2d34-46ae-9e1f-b93b85b461c8",
          "host": "localhost:8080",
          "content-type": "application/json",
          "connection": "keep-alive",
          "accept-encoding": "gzip, deflate, br",
          "user-agent": "PostmanRuntime/7.33.0",
          "accept": "*/*"
        },
        "normalized_path_info": "/api/v1/employees",
        "path_info": "/api/v1/employees",
        "protocol": "HTTP/1.1",
        "request_method": "POST"
      },
      "id": 1,
      "thread_id": 37
    },
    {
      "defined_class": "com.bharathkalyans.relearn.model.Employee",
      "event": "call",
      "id": 2,
      "lineno": 35,
      "method_id": "setFirstName",
      "parameters": [
        {
          "class": "java.lang.String",
          "kind": "req",
          "name": "firstName",
          "object_id": 815150961,
          "value": "ABenjamin"
        }
      ],
      "path": "com/bharathkalyans/relearn/model/Employee.java",
      "receiver": {
        "class": "com.bharathkalyans.relearn.model.Employee",
        "object_id": 1972678407,
        "value": "com.bharathkalyans.relearn.model.Employee@7594af07"
      },
      "static": false,
      "thread_id": 37
    },
    {
      "elapsed": 0.0000644,
      "event": "return",
      "id": 3,
      "parent_id": 2,
      "thread_id": 37
    },
    {
      "defined_class": "com.bharathkalyans.relearn.model.Employee",
      "event": "call",
      "id": 4,
      "lineno": 39,
      "method_id": "setLastName",
      "parameters": [
        {
          "class": "java.lang.String",
          "kind": "req",
          "name": "lastName",
          "object_id": 1028811744,
          "value": "Deveiliers"
        }
      ],
      "path": "com/bharathkalyans/relearn/model/Employee.java",
      "receiver": {
        "class": "com.bharathkalyans.relearn.model.Employee",
        "object_id": 1972678407,
        "value": "com.bharathkalyans.relearn.model.Employee@7594af07"
      },
      "static": false,
      "thread_id": 37
    },
    {
      "elapsed": 0.0000077,
      "event": "return",
      "id": 5,
      "parent_id": 4,
      "thread_id": 37
    },
    {
      "defined_class": "com.bharathkalyans.relearn.model.Employee",
      "event": "call",
      "id": 6,
      "lineno": 43,
      "method_id": "setEmailId",
      "parameters": [
        {
          "class": "java.lang.String",
          "kind": "req",
          "name": "emailId",
          "object_id": 1143716147,
          "value": "abd@mail.com"
        }
      ],
      "path": "com/bharathkalyans/relearn/model/Employee.java",
      "receiver": {
        "class": "com.bharathkalyans.relearn.model.Employee",
        "object_id": 1972678407,
        "value": "com.bharathkalyans.relearn.model.Employee@7594af07"
      },
      "static": false,
      "thread_id": 37
    },
    {
      "elapsed": 0.0000058,
      "event": "return",
      "id": 7,
      "parent_id": 6,
      "thread_id": 37
    },
    {
      "defined_class": "com.bharathkalyans.relearn.controller.EmployeeController",
      "event": "call",
      "id": 8,
      "lineno": 52,
      "method_id": "createEmployee",
      "parameters": [
        {
          "class": "com.bharathkalyans.relearn.model.Employee",
          "kind": "req",
          "name": "employee",
          "object_id": 1972678407,
          "value": "com.bharathkalyans.relearn.model.Employee@7594af07"
        }
      ],
      "path": "com/bharathkalyans/relearn/controller/EmployeeController.java",
      "receiver": {
        "class": "com.bharathkalyans.relearn.controller.EmployeeController",
        "object_id": 951806862,
        "value": "com.bharathkalyans.relearn.controller.EmployeeController@38bb6b8e"
      },
      "static": false,
      "thread_id": 37
    },
    {
      "defined_class": "com.bharathkalyans.relearn.service.EmployeeService",
      "event": "call",
      "id": 9,
      "lineno": 30,
      "method_id": "createEmployee",
      "parameters": [
        {
          "class": "com.bharathkalyans.relearn.model.Employee",
          "kind": "req",
          "name": "employee",
          "object_id": 1972678407,
          "value": "com.bharathkalyans.relearn.model.Employee@7594af07"
        }
      ],
      "path": "com/bharathkalyans/relearn/service/EmployeeService.java",
      "receiver": {
        "class": "com.bharathkalyans.relearn.service.EmployeeService",
        "object_id": 656126584,
        "value": "com.bharathkalyans.relearn.service.EmployeeService@271bb278"
      },
      "static": false,
      "thread_id": 37
    },
    {
      "event": "call",
      "id": 10,
      "sql_query": {
        "database_type": "PostgreSQL",
        "sql": "select nextval('employee_sequence_generator')"
      },
      "thread_id": 37
    },
    {
      "elapsed": 0.0000414,
      "event": "return",
      "id": 11,
      "parent_id": 10,
      "thread_id": 37
    },
    {
      "event": "call",
      "id": 12,
      "sql_query": {
        "database_type": "PostgreSQL",
        "sql": "insert into employees (email_id,first_name,last_name,id) values (?,?,?,?)"
      },
      "thread_id": 37
    },
    {
      "elapsed": 0.0000133,
      "event": "return",
      "id": 13,
      "parent_id": 12,
      "thread_id": 37
    },
    {
      "elapsed": 0.0007282,
      "event": "return",
      "id": 14,
      "parent_id": 9,
      "return_value": {
        "class": "org.springframework.http.ResponseEntity",
        "object_id": 284257963,
        "value": "<200 OK OK,com.bharathkalyans.relearn.model.Employee@7594af07,[]>"
      },
      "thread_id": 37
    },
    {
      "elapsed": 0.0007497,
      "event": "return",
      "id": 15,
      "parent_id": 8,
      "return_value": {
        "class": "org.springframework.http.ResponseEntity",
        "object_id": 284257963,
        "value": "<200 OK OK,com.bharathkalyans.relearn.model.Employee@7594af07,[]>"
      },
      "thread_id": 37
    },
    {
      "elapsed": 0.0015968,
      "event": "return",
      "http_server_response": {
        "headers": {
          "Transfer-Encoding": "chunked",
          "Keep-Alive": "timeout=60",
          "Connection": "keep-alive",
          "Vary": "Origin",
          "Date": "Sun, 15 Oct 2023 04:56:35 GMT",
          "Content-Type": "application/json"
        },
        "status": 200
      },
      "id": 16,
      "parent_id": 1,
      "thread_id": 37
    }
  ],
  "version": "1.2",
  "metadata": {
    "name": "POST /api/v1/employees (200) - 10:26:35.227",
    "app": "relearn",
    "language": {
      "name": "java",
      "version": "17.0.8.1+1",
      "engine": "OpenJDK 64-Bit Server VM"
    },
    "client": {
      "name": "appmap-java",
      "url": "https://github.com/appland/appmap-java"
    },
    "recorder": {
      "name": "request_recording",
      "type": "requests"
    },
    "recording": {},
    "framework": {}
  },
  "classMap": [
    {
      "children": [
        {
          "children": [
            {
              "children": [
                {
                  "children": [
                    {
                      "children": [
                        {
                          "name": "setEmailId",
                          "type": "function",
                          "static": false,
                          "location": "com/bharathkalyans/relearn/model/Employee.java:43"
                        },
                        {
                          "name": "setFirstName",
                          "type": "function",
                          "static": false,
                          "location": "com/bharathkalyans/relearn/model/Employee.java:35"
                        },
                        {
                          "name": "setLastName",
                          "type": "function",
                          "static": false,
                          "location": "com/bharathkalyans/relearn/model/Employee.java:39"
                        }
                      ],
                      "name": "Employee",
                      "type": "class"
                    }
                  ],
                  "name": "model",
                  "type": "package"
                },
                {
                  "children": [
                    {
                      "children": [
                        {
                          "name": "createEmployee",
                          "type": "function",
                          "static": false,
                          "location": "com/bharathkalyans/relearn/controller/EmployeeController.java:52"
                        }
                      ],
                      "name": "EmployeeController",
                      "type": "class"
                    }
                  ],
                  "name": "controller",
                  "type": "package"
                },
                {
                  "children": [
                    {
                      "children": [
                        {
                          "name": "createEmployee",
                          "type": "function",
                          "static": false,
                          "location": "com/bharathkalyans/relearn/service/EmployeeService.java:30"
                        }
                      ],
                      "name": "EmployeeService",
                      "type": "class"
                    }
                  ],
                  "name": "service",
                  "type": "package"
                }
              ],
              "name": "relearn",
              "type": "package"
            }
          ],
          "name": "bharathkalyans",
          "type": "package"
        }
      ],
      "name": "com",
      "type": "package"
    },
    {
      "type": "http",
      "name": "HTTP server requests",
      "children": [
        {
          "type": "route",
          "name": "POST /api/v1/employees"
        }
      ]
    },
    {
      "type": "database",
      "name": "Database",
      "children": [
        {
          "type": "query",
          "name": "select nextval('employee_sequence_generator')"
        },
        {
          "type": "query",
          "name": "insert into employees (email_id,first_name,last_name,id) values (?,?,?,?)"
        }
      ]
    }
  ]
}